%YAML 1.1
%TAG !u! tag:unity3d.com,2011:
--- !u!114 &-7265106114407362516
MonoBehaviour:
  m_ObjectHideFlags: 0
  m_CorrespondingSourceObject: {fileID: 0}
  m_PrefabInstance: {fileID: 0}
  m_PrefabAsset: {fileID: 0}
  m_GameObject: {fileID: 0}
  m_Enabled: 1
  m_EditorHideFlags: 0
  m_Script: {fileID: 11500000, guid: f1d61257710f55f478816040e1d1dfc9, type: 3}
  m_Name: Synty Texture Spawner
  m_EditorClassIdentifier: 
  m_resources:
    m_resourcesID: 58bd3875-0e37-4b06-b84d-3a1f28c1de09
    m_name: NewResources
    m_beachHeight: 5
    m_terrainHeight: 1000
    m_texturePrototypes:
    - m_name: POLYGON_sandyRock
      m_texture: {fileID: 2800000, guid: d0960219edc490341b17d0752bdafe63, type: 3}
      m_textureFileName: 
      m_normal: {fileID: 2800000, guid: 6363b7dc8a945c548a4e055d702f6c81, type: 3}
      m_maskmap: {fileID: 0}
      m_CTSSmoothnessMap: {fileID: 0}
      m_CTSRoughnessMap: {fileID: 0}
      m_CTSHeightMap: {fileID: 0}
      m_CTSAmbientOcclusionMap: {fileID: 0}
      m_normalFileName: 
      m_sizeX: 5
      m_sizeY: 5
      m_offsetX: 0
      m_offsetY: 0
      m_metallic: 0.2
      m_smoothness: 0.3
      m_spawnCriteria: []
      m_LayerGUID: 6fefd53d9bb3a407c9603d21dfcb4fae
      m_normalScale: 0.5
      m_diffuseRemapMax: {x: 1, y: 1, z: 1, w: 1}
      m_diffuseRemapMin: {x: 0, y: 0, z: 0, w: 0}
      m_maskMapRemapMax: {x: 1, y: 1, z: 1, w: 1}
      m_maskMapRemapMin: {x: 0, y: 0, z: 0, w: 0}
      m_specularColor: {r: 0, g: 0, b: 0, a: 0}
      m_channelRemapFoldedOut: 0
    - m_name: POLYGON_Grass
      m_texture: {fileID: 2800000, guid: 298d7c1fa0c679d4386171408d4c1ca7, type: 3}
      m_textureFileName: 
      m_normal: {fileID: 2800000, guid: 6363b7dc8a945c548a4e055d702f6c81, type: 3}
      m_maskmap: {fileID: 0}
      m_CTSSmoothnessMap: {fileID: 0}
      m_CTSRoughnessMap: {fileID: 0}
      m_CTSHeightMap: {fileID: 0}
      m_CTSAmbientOcclusionMap: {fileID: 0}
      m_normalFileName: 
      m_sizeX: 7
      m_sizeY: 7
      m_offsetX: 0
      m_offsetY: 0
      m_metallic: 0.2
      m_smoothness: 0.2
      m_spawnCriteria: []
      m_LayerGUID: c22ea7d7d51f04df7ae85c1e0a4e2299
      m_normalScale: 0.75
      m_diffuseRemapMax: {x: 1, y: 1, z: 1, w: 1}
      m_diffuseRemapMin: {x: 0, y: 0, z: 0, w: 0}
      m_maskMapRemapMax: {x: 1, y: 1, z: 1, w: 1}
      m_maskMapRemapMin: {x: 0, y: 0, z: 0, w: 0}
      m_specularColor: {r: 0, g: 0, b: 0, a: 0}
      m_channelRemapFoldedOut: 0
    - m_name: POLYGON_Dirt
      m_texture: {fileID: 2800000, guid: 7bc55a021f626444a885bd868b508d00, type: 3}
      m_textureFileName: 
      m_normal: {fileID: 2800000, guid: 6363b7dc8a945c548a4e055d702f6c81, type: 3}
      m_maskmap: {fileID: 0}
      m_CTSSmoothnessMap: {fileID: 0}
      m_CTSRoughnessMap: {fileID: 0}
      m_CTSHeightMap: {fileID: 0}
      m_CTSAmbientOcclusionMap: {fileID: 0}
      m_normalFileName: 
      m_sizeX: 7
      m_sizeY: 7
      m_offsetX: 0
      m_offsetY: 0
      m_metallic: 0.1
      m_smoothness: 0.1
      m_spawnCriteria: []
      m_LayerGUID: 9a6fa5910262a452882d8518a3e07700
      m_normalScale: 0.5
      m_diffuseRemapMax: {x: 1, y: 1, z: 1, w: 1}
      m_diffuseRemapMin: {x: 0, y: 0, z: 0, w: 0}
      m_maskMapRemapMax: {x: 1, y: 1, z: 1, w: 1}
      m_maskMapRemapMin: {x: 0, y: 0, z: 0, w: 0}
      m_specularColor: {r: 0, g: 0, b: 0, a: 0}
      m_channelRemapFoldedOut: 0
    - m_name: POLYGON_rock
      m_texture: {fileID: 2800000, guid: 8ea22b74debbcd841a4750e7ee1ebb84, type: 3}
      m_textureFileName: 
      m_normal: {fileID: 2800000, guid: 6363b7dc8a945c548a4e055d702f6c81, type: 3}
      m_maskmap: {fileID: 0}
      m_CTSSmoothnessMap: {fileID: 0}
      m_CTSRoughnessMap: {fileID: 0}
      m_CTSHeightMap: {fileID: 0}
      m_CTSAmbientOcclusionMap: {fileID: 0}
      m_normalFileName: 
      m_sizeX: 20
      m_sizeY: 20
      m_offsetX: 0
      m_offsetY: 0
      m_metallic: 0.2
      m_smoothness: 0.3
      m_spawnCriteria: []
      m_LayerGUID: 8d824d5e277d44ada979c763ad9969f7
      m_normalScale: 1
      m_diffuseRemapMax: {x: 1, y: 1, z: 1, w: 1}
      m_diffuseRemapMin: {x: 0, y: 0, z: 0, w: 0}
      m_maskMapRemapMax: {x: 1, y: 1, z: 1, w: 1}
      m_maskMapRemapMin: {x: 0, y: 0, z: 0, w: 0}
      m_specularColor: {r: 0, g: 0, b: 0, a: 0}
      m_channelRemapFoldedOut: 0
    m_detailPrototypes: []
    m_treePrototypes: []
    m_gameObjectPrototypes: []
    m_spawnExtensionPrototypes: []
    m_stampDistributionPrototypes: []
    m_worldBiomeMaskPrototypes: []
    m_probePrototypes: []
  m_x: 0
  m_y: 50
  m_z: 0
  m_width: 10
  m_height: 10
  m_rotation: 0
  m_isWorldmapSpawner: 0
  m_spawnRange: 1024
  m_generateRandomSeed: 1
  m_randomSeed: 1185675310
  m_spawnDensity: 0.8
  m_resourcesPath: 
  m_spawnerRules:
  - m_name: POLYGON_sandyRock
    m_guid: 9df0b64c-33e7-4fc5-8b5f-f6f3c09aab2c
    m_useExtendedSpawn: 0
    m_minRequiredFitness: 0.25
    m_minInstanceRequiredFitness: 0
    m_failureRate: 0
    m_maxInstances: 40000000
    m_ignoreMaxInstances: 0
    m_minDirection: 0
    m_maxDirection: 359.9
    m_locationIncrementMin: 25
    m_locationIncrementMax: 45
    m_jitterPercent: 0.5
    m_boundsCheckQuality: 25
    m_resourceType: 0
    m_resourceIdx: 0
    m_imageMasks: []
    m_visualisationColor: {r: 0.7686275, g: 0.3960784, b: 0.3921569, a: 1}
    m_noiseMask: 0
    m_noiseMaskSeed: 0
    m_noiseMaskOctaves: 8
    m_noiseMaskPersistence: 0.25
    m_noiseMaskFrequency: 1
    m_noiseMaskLacunarity: 1.5
    m_noiseZoom: 50
    m_noiseStrength: 1
    m_noiseInvert: 0
    m_isActive: 1
    m_isFoldedOut: 0
    m_currInstanceCnt: 0
    m_activeInstanceCnt: 0
    m_inactiveInstanceCnt: 0
    m_resourceSettingsFoldedOut: 0
    m_isHelpActive: 0
    m_spawnedInstances: 0
    m_goSpawnTargetMode: 0
    m_goSpawnTarget: {fileID: 0}
    m_terrainGOSpawnTargetName: Gaia Game Object Spawns
    m_terrainDetailDensity: 15
    m_terrainDetailMinFitness: 0.5
    m_terrainDetailFitnessBeginFadeOut: 0.6
    m_createdBiomeController: {fileID: 0}
    m_visibleInSceneHierarchy: 1
    m_usesBoxStandIn: 0
    m_boundsCollisionCheck: 0
  - m_name: POLYGON_Grass
    m_guid: 46aaf67a-7840-400f-807b-690201674521
    m_useExtendedSpawn: 0
    m_minRequiredFitness: 0.25
    m_minInstanceRequiredFitness: 0
    m_failureRate: 0
    m_maxInstances: 40000000
    m_ignoreMaxInstances: 0
    m_minDirection: 0
    m_maxDirection: 359.9
    m_locationIncrementMin: 25
    m_locationIncrementMax: 45
    m_jitterPercent: 0.5
    m_boundsCheckQuality: 25
    m_resourceType: 0
    m_resourceIdx: 1
    m_imageMasks:
    - m_active: 1
      m_invert: 0
      m_hasErrors: 0
      m_influence: 0
      m_operation: 2
      m_blendMode: 0
      m_imageMaskLocation: 0
      m_strength: 1
      m_seaLevel: 95
      m_maxWorldHeight: 202.12808
      m_minWorldHeight: 0
      m_xOffSet: 0
      m_zOffSet: 0
      m_xOffSetScalar: 0
      m_zOffSetScalar: 0
      m_imageMaskTextureGUID: 
      m_imageMaskFilterMode: 0
      m_imageMaskColorSelectionColor: {r: 1, g: 1, b: 1, a: 1}
      m_imageMaskColorSelectionAccuracy: 0.5
      m_distanceMaskCurve:
        serializedVersion: 2
        m_Curve:
        - serializedVersion: 3
          time: 0
          value: 1
          inSlope: 0
          outSlope: 0
          tangentMode: 0
          weightedMode: 0
          inWeight: 0
          outWeight: 0
        - serializedVersion: 3
          time: 1
          value: 0
          inSlope: 0
          outSlope: 0
          tangentMode: 0
          weightedMode: 0
          inWeight: 0
          outWeight: 0
        m_PreInfinity: 2
        m_PostInfinity: 2
        m_RotationOrder: 4
      m_heightMaskCurve:
        serializedVersion: 2
        m_Curve:
        - serializedVersion: 3
          time: 0
          value: 0
          inSlope: 0
          outSlope: 0
          tangentMode: 0
          weightedMode: 0
          inWeight: 0
          outWeight: 0
        - serializedVersion: 3
          time: 1
          value: 1
          inSlope: 0
          outSlope: 0
          tangentMode: 0
          weightedMode: 0
          inWeight: 0
          outWeight: 0
        m_PreInfinity: 2
        m_PostInfinity: 2
        m_RotationOrder: 4
      m_strengthTransformCurve:
        serializedVersion: 2
        m_Curve:
        - serializedVersion: 3
          time: 0
          value: 0
          inSlope: 0
          outSlope: 0
          tangentMode: 0
          weightedMode: 0
          inWeight: 0
          outWeight: 0
        - serializedVersion: 3
          time: 1
          value: 1
          inSlope: 0
          outSlope: 0
          tangentMode: 0
          weightedMode: 0
          inWeight: 0
          outWeight: 0
        m_PreInfinity: 2
        m_PostInfinity: 2
        m_RotationOrder: 4
      m_heightMaskType: 1
      m_heightMaskUnit: 1
      m_relativeHeightMin: 5.86
      m_relativeHeightMax: 10.86
      m_absoluteHeightMin: 30.2722
      m_absoluteHeightMax: 35.272198
      m_seaLevelRelativeHeightMin: -109876.55
      m_seaLevelRelativeHeightMax: 109876.55
      tree1active: 0
      tree2active: 0
      m_slopeMaskCurve:
        serializedVersion: 2
        m_Curve:
        - serializedVersion: 3
          time: 0
          value: 1
          inSlope: 0
          outSlope: 0
          tangentMode: 0
          weightedMode: 0
          inWeight: 0
          outWeight: 0
        - serializedVersion: 3
          time: 1
          value: 0
          inSlope: 0
          outSlope: 0
          tangentMode: 0
          weightedMode: 0
          inWeight: 0
          outWeight: 0
        m_PreInfinity: 2
        m_PostInfinity: 2
        m_RotationOrder: 4
      m_slopeMin: 0
      m_slopeMax: 0.1
      m_distanceMaskAxes: 0
      m_gaiaNoiseSettings:
        m_translation: {x: 0, y: 0, z: 0}
        m_rotation: {x: 0, y: 0, z: 0}
        m_scale: {x: 10, y: 1, z: 10}
        m_noiseTypeName: Perlin
        m_noiseTypeParams: 
        m_fractalTypeName: Fbm
        m_fractalTypeParams: 
        m_warpEnabled: 0
        m_warpIterations: 0
        m_warpStrength: 0
        m_warpOffset: {x: 0, y: 0, z: 0, w: 0}
      m_noiseSettings: {fileID: 0}
      m_noiseToolSettings:
        worldHeightRemap: {x: 0, y: 0}
        coordSpace: 0
        noiseAssetGUID: 
      m_ShowNoiseTransformSettings: 0
      m_ShowNoisePreviewTexture: 1
      m_noisePreviewTextureLocked: 0
      m_ShowNoiseTypeSettings: 0
      m_scaleNoiseToTerrainSize: 0
      m_collisionMaskExpanded: 1
      m_collisionMasks: []
      m_erosionMaskOutput: 0
      m_erosionSimScale: 9
      m_erosionHydroTimeDelta: 0.05
      m_erosionHydroIterations: 15
      m_erosionThermalTimeDelta: 0.01
      m_erosionThermalIterations: 80
      m_erosionThermalReposeAngle: 80
      m_erosionPrecipRate: 0.5
      m_erosionEvaporationRate: 0.5
      m_erosionFlowRate: 0.5
      m_erosionSedimentCapacity: 0.5
      m_erosionSedimentDepositRate: 0.8
      m_erosionSedimentDissolveRate: 0.5
      m_erosionRiverBankDepositRate: 7
      m_erosionRiverBankDissolveRate: 5
      m_erosionRiverBedDepositRate: 5
      m_erosionRiverBedDissolveRate: 5
      m_erosionShowAdvancedUI: 0
      m_erosionShowThermalUI: 0
      m_erosionShowWaterUI: 0
      m_erosionShowSedimentUI: 0
      m_erosionShowRiverBankUI: 0
      m_smoothVerticality: 0
      m_smoothBlurRadius: 1
      m_textureMaskSpawnRuleGUID: 
      m_concavity: 1
      m_concavityFeatureSize: 10
      m_foldedOut: 1
      m_selectedWorldBiomeMaskGUID: 
      m_growAndShrinkValue: 0
      m_globalSpawnerMaskStackRT: {fileID: 0}
    m_visualisationColor: {r: 0, g: 1, b: 0.23313022, a: 1}
    m_noiseMask: 0
    m_noiseMaskSeed: 0
    m_noiseMaskOctaves: 8
    m_noiseMaskPersistence: 0.25
    m_noiseMaskFrequency: 1
    m_noiseMaskLacunarity: 1.5
    m_noiseZoom: 50
    m_noiseStrength: 1
    m_noiseInvert: 0
    m_isActive: 1
    m_isFoldedOut: 0
    m_currInstanceCnt: 0
    m_activeInstanceCnt: 0
    m_inactiveInstanceCnt: 0
    m_resourceSettingsFoldedOut: 0
    m_isHelpActive: 0
    m_spawnedInstances: 0
    m_goSpawnTargetMode: 0
    m_goSpawnTarget: {fileID: 0}
    m_terrainGOSpawnTargetName: Gaia Game Object Spawns
    m_terrainDetailDensity: 15
    m_terrainDetailMinFitness: 0.5
    m_terrainDetailFitnessBeginFadeOut: 0.6
    m_createdBiomeController: {fileID: 0}
    m_visibleInSceneHierarchy: 1
    m_usesBoxStandIn: 0
    m_boundsCollisionCheck: 0
  - m_name: POLYGON_Dirt
    m_guid: 55ceab29-cb5d-42a1-b969-6a0f9dcbdc3a
    m_useExtendedSpawn: 0
    m_minRequiredFitness: 0.25
    m_minInstanceRequiredFitness: 0
    m_failureRate: 0
    m_maxInstances: 40000000
    m_ignoreMaxInstances: 0
    m_minDirection: 0
    m_maxDirection: 359.9
    m_locationIncrementMin: 25
    m_locationIncrementMax: 45
    m_jitterPercent: 0.5
    m_boundsCheckQuality: 25
    m_resourceType: 0
    m_resourceIdx: 2
    m_imageMasks:
    - m_active: 1
      m_invert: 0
      m_hasErrors: 0
      m_influence: 0
      m_operation: 4
      m_blendMode: 0
      m_imageMaskLocation: 0
      m_strength: 1
      m_seaLevel: 95
      m_maxWorldHeight: 202.12808
      m_minWorldHeight: 0
      m_xOffSet: 0
      m_zOffSet: 0
      m_xOffSetScalar: 0
      m_zOffSetScalar: 0
      m_imageMaskTextureGUID: 
      m_imageMaskFilterMode: 0
      m_imageMaskColorSelectionColor: {r: 1, g: 1, b: 1, a: 1}
      m_imageMaskColorSelectionAccuracy: 0.5
      m_distanceMaskCurve:
        serializedVersion: 2
        m_Curve:
        - serializedVersion: 3
          time: 0
          value: 1
          inSlope: 0
          outSlope: 0
          tangentMode: 0
          weightedMode: 0
          inWeight: 0
          outWeight: 0
        - serializedVersion: 3
          time: 1
          value: 0
          inSlope: 0
          outSlope: 0
          tangentMode: 0
          weightedMode: 0
          inWeight: 0
          outWeight: 0
        m_PreInfinity: 2
        m_PostInfinity: 2
        m_RotationOrder: 4
      m_heightMaskCurve:
        serializedVersion: 2
        m_Curve:
        - serializedVersion: 3
          time: 0
          value: 0
          inSlope: 0
          outSlope: 0
          tangentMode: 0
          weightedMode: 0
          inWeight: 0
          outWeight: 0
        - serializedVersion: 3
          time: 1
          value: 1
          inSlope: 0
          outSlope: 0
          tangentMode: 0
          weightedMode: 0
          inWeight: 0
          outWeight: 0
        m_PreInfinity: 2
        m_PostInfinity: 2
        m_RotationOrder: 4
      m_strengthTransformCurve:
        serializedVersion: 2
        m_Curve:
        - serializedVersion: 3
          time: 0
          value: 0
          inSlope: 0
          outSlope: 0
          tangentMode: 0
          weightedMode: 0
          inWeight: 0
          outWeight: 0
        - serializedVersion: 3
          time: 1
          value: 1
          inSlope: 0
          outSlope: 0
          tangentMode: 0
          weightedMode: 0
          inWeight: 0
          outWeight: 0
        m_PreInfinity: 2
        m_PostInfinity: 2
        m_RotationOrder: 4
      m_heightMaskType: 1
      m_heightMaskUnit: 0
      m_relativeHeightMin: -10
      m_relativeHeightMax: 10
      m_absoluteHeightMin: 2.5
      m_absoluteHeightMax: 22.5
      m_seaLevelRelativeHeightMin: -109876.55
      m_seaLevelRelativeHeightMax: 109876.55
      tree1active: 0
      tree2active: 0
      m_slopeMaskCurve:
        serializedVersion: 2
        m_Curve:
        - serializedVersion: 3
          time: 0
          value: 1
          inSlope: 0
          outSlope: 0
          tangentMode: 0
          weightedMode: 0
          inWeight: 0
          outWeight: 0
        - serializedVersion: 3
          time: 1
          value: 0
          inSlope: 0
          outSlope: 0
          tangentMode: 0
          weightedMode: 0
          inWeight: 0
          outWeight: 0
        m_PreInfinity: 2
        m_PostInfinity: 2
        m_RotationOrder: 4
      m_slopeMin: 0
      m_slopeMax: 0.1
      m_distanceMaskAxes: 0
      m_gaiaNoiseSettings:
        m_translation: {x: 0, y: 0, z: 0}
        m_rotation: {x: 0, y: 0, z: 0}
        m_scale: {x: 75.375916, y: 1, z: 75.375916}
        m_noiseTypeName: Perlin
        m_noiseTypeParams: 
        m_fractalTypeName: Fbm
        m_fractalTypeParams: '{"warpOffsets":{"x":2.5,"y":1.399999976158142,"z":3.200000047683716,"w":2.700000047683716},"octavesMinMax":{"x":0.0,"y":16.0},"amplitudeMinMax":{"x":0.0,"y":1.0},"frequencyMinMax":{"x":0.0,"y":2.0},"lacunarityMinMax":{"x":0.0,"y":4.0},"persistenceMinMax":{"x":0.0,"y":1.0},"warpIterationsMinMax":{"x":0.0,"y":8.0},"warpStrengthMinMax":{"x":-2.0,"y":2.0},"octaves":4.059999942779541,"amplitude":0.5149999856948853,"frequency":0.6069999933242798,"persistence":0.5149999856948853,"lacunarity":2.0,"warpIterations":1.0,"warpStrength":0.5,"warpEnabled":false,"warpExpanded":true}'
        m_warpEnabled: 0
        m_warpIterations: 0
        m_warpStrength: 0
        m_warpOffset: {x: 0, y: 0, z: 0, w: 0}
      m_noiseSettings: {fileID: 0}
      m_noiseToolSettings:
        worldHeightRemap: {x: 0, y: 0}
        coordSpace: 0
        noiseAssetGUID: 
      m_ShowNoiseTransformSettings: 0
      m_ShowNoisePreviewTexture: 1
      m_noisePreviewTextureLocked: 1
      m_ShowNoiseTypeSettings: 1
      m_scaleNoiseToTerrainSize: 0
      m_collisionMaskExpanded: 1
      m_collisionMasks: []
      m_erosionMaskOutput: 0
      m_erosionSimScale: 9
      m_erosionHydroTimeDelta: 0.05
      m_erosionHydroIterations: 15
      m_erosionThermalTimeDelta: 0.01
      m_erosionThermalIterations: 80
      m_erosionThermalReposeAngle: 80
      m_erosionPrecipRate: 0.5
      m_erosionEvaporationRate: 0.5
      m_erosionFlowRate: 0.5
      m_erosionSedimentCapacity: 0.5
      m_erosionSedimentDepositRate: 0.8
      m_erosionSedimentDissolveRate: 0.5
      m_erosionRiverBankDepositRate: 7
      m_erosionRiverBankDissolveRate: 5
      m_erosionRiverBedDepositRate: 5
      m_erosionRiverBedDissolveRate: 5
      m_erosionShowAdvancedUI: 0
      m_erosionShowThermalUI: 0
      m_erosionShowWaterUI: 0
      m_erosionShowSedimentUI: 0
      m_erosionShowRiverBankUI: 0
      m_smoothVerticality: 0
      m_smoothBlurRadius: 1
      m_textureMaskSpawnRuleGUID: 
      m_concavity: 1
      m_concavityFeatureSize: 10
      m_foldedOut: 1
      m_selectedWorldBiomeMaskGUID: 
      m_growAndShrinkValue: 0
      m_globalSpawnerMaskStackRT: {fileID: 0}
    - m_active: 1
      m_invert: 0
      m_hasErrors: 0
      m_influence: 0
      m_operation: 2
      m_blendMode: 0
      m_imageMaskLocation: 0
      m_strength: 1
      m_seaLevel: 95
      m_maxWorldHeight: 202.12808
      m_minWorldHeight: 0
      m_xOffSet: 0
      m_zOffSet: 0
      m_xOffSetScalar: 0
      m_zOffSetScalar: 0
      m_imageMaskTextureGUID: 
      m_imageMaskFilterMode: 0
      m_imageMaskColorSelectionColor: {r: 1, g: 1, b: 1, a: 1}
      m_imageMaskColorSelectionAccuracy: 0.5
      m_distanceMaskCurve:
        serializedVersion: 2
        m_Curve:
        - serializedVersion: 3
          time: 0
          value: 1
          inSlope: 0
          outSlope: 0
          tangentMode: 0
          weightedMode: 0
          inWeight: 0
          outWeight: 0
        - serializedVersion: 3
          time: 1
          value: 0
          inSlope: 0
          outSlope: 0
          tangentMode: 0
          weightedMode: 0
          inWeight: 0
          outWeight: 0
        m_PreInfinity: 2
        m_PostInfinity: 2
        m_RotationOrder: 4
      m_heightMaskCurve:
        serializedVersion: 2
        m_Curve:
        - serializedVersion: 3
          time: 0
          value: 0
          inSlope: 0
          outSlope: 0
          tangentMode: 0
          weightedMode: 0
          inWeight: 0
          outWeight: 0
        - serializedVersion: 3
          time: 1
          value: 1
          inSlope: 0
          outSlope: 0
          tangentMode: 0
          weightedMode: 0
          inWeight: 0
          outWeight: 0
        m_PreInfinity: 2
        m_PostInfinity: 2
        m_RotationOrder: 4
      m_strengthTransformCurve:
        serializedVersion: 2
        m_Curve:
        - serializedVersion: 3
          time: 0
          value: 0
          inSlope: 0
          outSlope: 0
          tangentMode: 0
          weightedMode: 0
          inWeight: 0
          outWeight: 0
        - serializedVersion: 3
          time: 1
          value: 1
          inSlope: 0
          outSlope: 0
          tangentMode: 0
          weightedMode: 0
          inWeight: 0
          outWeight: 0
        m_PreInfinity: 2
        m_PostInfinity: 2
        m_RotationOrder: 4
      m_heightMaskType: 1
      m_heightMaskUnit: 1
      m_relativeHeightMin: -4.98
      m_relativeHeightMax: 10.02
      m_absoluteHeightMin: 19.4322
      m_absoluteHeightMax: 34.432198
      m_seaLevelRelativeHeightMin: -109876.55
      m_seaLevelRelativeHeightMax: 109876.55
      tree1active: 0
      tree2active: 0
      m_slopeMaskCurve:
        serializedVersion: 2
        m_Curve:
        - serializedVersion: 3
          time: 0
          value: 1
          inSlope: 0
          outSlope: 0
          tangentMode: 0
          weightedMode: 0
          inWeight: 0
          outWeight: 0
        - serializedVersion: 3
          time: 1
          value: 0
          inSlope: 0
          outSlope: 0
          tangentMode: 0
          weightedMode: 0
          inWeight: 0
          outWeight: 0
        m_PreInfinity: 2
        m_PostInfinity: 2
        m_RotationOrder: 4
      m_slopeMin: 0
      m_slopeMax: 0.1
      m_distanceMaskAxes: 0
      m_gaiaNoiseSettings:
        m_translation: {x: 0, y: 0, z: 0}
        m_rotation: {x: 0, y: 0, z: 0}
        m_scale: {x: 10, y: 1, z: 10}
        m_noiseTypeName: Perlin
        m_noiseTypeParams: 
        m_fractalTypeName: Fbm
        m_fractalTypeParams: 
        m_warpEnabled: 0
        m_warpIterations: 0
        m_warpStrength: 0
        m_warpOffset: {x: 0, y: 0, z: 0, w: 0}
      m_noiseSettings: {fileID: 0}
      m_noiseToolSettings:
        worldHeightRemap: {x: 0, y: 0}
        coordSpace: 0
        noiseAssetGUID: 
      m_ShowNoiseTransformSettings: 0
      m_ShowNoisePreviewTexture: 1
      m_noisePreviewTextureLocked: 0
      m_ShowNoiseTypeSettings: 0
      m_scaleNoiseToTerrainSize: 0
      m_collisionMaskExpanded: 1
      m_collisionMasks: []
      m_erosionMaskOutput: 0
      m_erosionSimScale: 9
      m_erosionHydroTimeDelta: 0.05
      m_erosionHydroIterations: 15
      m_erosionThermalTimeDelta: 0.01
      m_erosionThermalIterations: 80
      m_erosionThermalReposeAngle: 80
      m_erosionPrecipRate: 0.5
      m_erosionEvaporationRate: 0.5
      m_erosionFlowRate: 0.5
      m_erosionSedimentCapacity: 0.5
      m_erosionSedimentDepositRate: 0.8
      m_erosionSedimentDissolveRate: 0.5
      m_erosionRiverBankDepositRate: 7
      m_erosionRiverBankDissolveRate: 5
      m_erosionRiverBedDepositRate: 5
      m_erosionRiverBedDissolveRate: 5
      m_erosionShowAdvancedUI: 0
      m_erosionShowThermalUI: 0
      m_erosionShowWaterUI: 0
      m_erosionShowSedimentUI: 0
      m_erosionShowRiverBankUI: 0
      m_smoothVerticality: 0
      m_smoothBlurRadius: 1
      m_textureMaskSpawnRuleGUID: 
      m_concavity: 1
      m_concavityFeatureSize: 10
      m_foldedOut: 1
      m_selectedWorldBiomeMaskGUID: 
      m_growAndShrinkValue: 0
      m_globalSpawnerMaskStackRT: {fileID: 0}
    m_visualisationColor: {r: 0, g: 0.79581356, b: 1, a: 1}
    m_noiseMask: 0
    m_noiseMaskSeed: 0
    m_noiseMaskOctaves: 8
    m_noiseMaskPersistence: 0.25
    m_noiseMaskFrequency: 1
    m_noiseMaskLacunarity: 1.5
    m_noiseZoom: 50
    m_noiseStrength: 1
    m_noiseInvert: 0
    m_isActive: 1
    m_isFoldedOut: 0
    m_currInstanceCnt: 0
    m_activeInstanceCnt: 0
    m_inactiveInstanceCnt: 0
    m_resourceSettingsFoldedOut: 0
    m_isHelpActive: 0
    m_spawnedInstances: 0
    m_goSpawnTargetMode: 0
    m_goSpawnTarget: {fileID: 0}
    m_terrainGOSpawnTargetName: Gaia Game Object Spawns
    m_terrainDetailDensity: 15
    m_terrainDetailMinFitness: 0.5
    m_terrainDetailFitnessBeginFadeOut: 0.6
    m_createdBiomeController: {fileID: 0}
    m_visibleInSceneHierarchy: 1
    m_usesBoxStandIn: 0
    m_boundsCollisionCheck: 0
  - m_name: POLYGON_rock
    m_guid: 234c8c3b-f367-433b-b41c-9b5c20f4a6c7
    m_useExtendedSpawn: 0
    m_minRequiredFitness: 0.25
    m_minInstanceRequiredFitness: 0
    m_failureRate: 0
    m_maxInstances: 40000000
    m_ignoreMaxInstances: 0
    m_minDirection: 0
    m_maxDirection: 359.9
    m_locationIncrementMin: 25
    m_locationIncrementMax: 45
    m_jitterPercent: 0.5
    m_boundsCheckQuality: 25
    m_resourceType: 0
    m_resourceIdx: 3
    m_imageMasks:
    - m_active: 1
      m_invert: 0
      m_hasErrors: 0
      m_influence: 0
      m_operation: 3
      m_blendMode: 0
      m_imageMaskLocation: 0
      m_strength: 1
      m_seaLevel: 95
      m_maxWorldHeight: 202.12808
      m_minWorldHeight: 0
      m_xOffSet: 0
      m_zOffSet: 0
      m_xOffSetScalar: 0
      m_zOffSetScalar: 0
      m_imageMaskTextureGUID: 
      m_imageMaskFilterMode: 0
      m_imageMaskColorSelectionColor: {r: 1, g: 1, b: 1, a: 1}
      m_imageMaskColorSelectionAccuracy: 0.5
      m_distanceMaskCurve:
        serializedVersion: 2
        m_Curve:
        - serializedVersion: 3
          time: 0
          value: 1
          inSlope: 0
          outSlope: 0
          tangentMode: 0
          weightedMode: 0
          inWeight: 0
          outWeight: 0
        - serializedVersion: 3
          time: 1
          value: 0
          inSlope: 0
          outSlope: 0
          tangentMode: 0
          weightedMode: 0
          inWeight: 0
          outWeight: 0
        m_PreInfinity: 2
        m_PostInfinity: 2
        m_RotationOrder: 4
      m_heightMaskCurve:
        serializedVersion: 2
        m_Curve:
        - serializedVersion: 3
          time: 0
          value: 0
          inSlope: 0
          outSlope: 0
          tangentMode: 0
          weightedMode: 0
          inWeight: 0
          outWeight: 0
        - serializedVersion: 3
          time: 1
          value: 1
          inSlope: 0
          outSlope: 0
          tangentMode: 0
          weightedMode: 0
          inWeight: 0
          outWeight: 0
        m_PreInfinity: 2
        m_PostInfinity: 2
        m_RotationOrder: 4
      m_strengthTransformCurve:
        serializedVersion: 2
        m_Curve:
        - serializedVersion: 3
          time: 0
          value: 0
          inSlope: 0
          outSlope: 0
          tangentMode: 0
          weightedMode: 0
          inWeight: 0
          outWeight: 0
        - serializedVersion: 3
          time: 1
          value: 1
          inSlope: 0
          outSlope: 0
          tangentMode: 0
          weightedMode: 0
          inWeight: 0
          outWeight: 0
        m_PreInfinity: 2
        m_PostInfinity: 2
        m_RotationOrder: 4
      m_heightMaskType: 1
      m_heightMaskUnit: 0
      m_relativeHeightMin: -10
      m_relativeHeightMax: 10
      m_absoluteHeightMin: 2.5
      m_absoluteHeightMax: 22.5
      m_seaLevelRelativeHeightMin: -109876.55
      m_seaLevelRelativeHeightMax: 109876.55
      tree1active: 0
      tree2active: 0
      m_slopeMaskCurve:
        serializedVersion: 2
        m_Curve:
        - serializedVersion: 3
          time: 0
          value: 0
          inSlope: 0
          outSlope: 0
          tangentMode: 0
          weightedMode: 0
          inWeight: 0
          outWeight: 0
        - serializedVersion: 3
          time: 1
          value: 1
          inSlope: 2
          outSlope: 2
          tangentMode: 0
          weightedMode: 0
          inWeight: 0
          outWeight: 0
        m_PreInfinity: 2
        m_PostInfinity: 2
        m_RotationOrder: 4
      m_slopeMin: 0
      m_slopeMax: 0.13155556
      m_distanceMaskAxes: 0
      m_gaiaNoiseSettings:
        m_translation: {x: 0, y: 0, z: 0}
        m_rotation: {x: 0, y: 0, z: 0}
        m_scale: {x: 10, y: 1, z: 10}
        m_noiseTypeName: Perlin
        m_noiseTypeParams: 
        m_fractalTypeName: Fbm
        m_fractalTypeParams: 
        m_warpEnabled: 0
        m_warpIterations: 0
        m_warpStrength: 0
        m_warpOffset: {x: 0, y: 0, z: 0, w: 0}
      m_noiseSettings: {fileID: 0}
      m_noiseToolSettings:
        worldHeightRemap: {x: 0, y: 0}
        coordSpace: 0
        noiseAssetGUID: 
      m_ShowNoiseTransformSettings: 0
      m_ShowNoisePreviewTexture: 1
      m_noisePreviewTextureLocked: 0
      m_ShowNoiseTypeSettings: 0
      m_scaleNoiseToTerrainSize: 0
      m_collisionMaskExpanded: 1
      m_collisionMasks: []
      m_erosionMaskOutput: 0
      m_erosionSimScale: 9
      m_erosionHydroTimeDelta: 0.05
      m_erosionHydroIterations: 15
      m_erosionThermalTimeDelta: 0.01
      m_erosionThermalIterations: 80
      m_erosionThermalReposeAngle: 80
      m_erosionPrecipRate: 0.5
      m_erosionEvaporationRate: 0.5
      m_erosionFlowRate: 0.5
      m_erosionSedimentCapacity: 0.5
      m_erosionSedimentDepositRate: 0.8
      m_erosionSedimentDissolveRate: 0.5
      m_erosionRiverBankDepositRate: 7
      m_erosionRiverBankDissolveRate: 5
      m_erosionRiverBedDepositRate: 5
      m_erosionRiverBedDissolveRate: 5
      m_erosionShowAdvancedUI: 0
      m_erosionShowThermalUI: 0
      m_erosionShowWaterUI: 0
      m_erosionShowSedimentUI: 0
      m_erosionShowRiverBankUI: 0
      m_smoothVerticality: 0
      m_smoothBlurRadius: 1
      m_textureMaskSpawnRuleGUID: 
      m_concavity: 1
      m_concavityFeatureSize: 10
      m_foldedOut: 1
      m_selectedWorldBiomeMaskGUID: 
      m_growAndShrinkValue: 0
      m_globalSpawnerMaskStackRT: {fileID: 0}
    m_visualisationColor: {r: 0.7433828, g: 0.5499383, b: 0.402634, a: 1}
    m_noiseMask: 0
    m_noiseMaskSeed: 0
    m_noiseMaskOctaves: 8
    m_noiseMaskPersistence: 0.25
    m_noiseMaskFrequency: 1
    m_noiseMaskLacunarity: 1.5
    m_noiseZoom: 50
    m_noiseStrength: 1
    m_noiseInvert: 0
    m_isActive: 1
    m_isFoldedOut: 0
    m_currInstanceCnt: 0
    m_activeInstanceCnt: 0
    m_inactiveInstanceCnt: 0
    m_resourceSettingsFoldedOut: 0
    m_isHelpActive: 0
    m_spawnedInstances: 0
    m_goSpawnTargetMode: 0
    m_goSpawnTarget: {fileID: 0}
    m_terrainGOSpawnTargetName: Gaia Game Object Spawns
    m_terrainDetailDensity: 15
    m_terrainDetailMinFitness: 0.5
    m_terrainDetailFitnessBeginFadeOut: 0.6
    m_createdBiomeController: {fileID: 0}
    m_visibleInSceneHierarchy: 1
    m_usesBoxStandIn: 0
    m_boundsCollisionCheck: 0
  m_showGizmos: 1
  m_showDebug: 0
  m_showTerrainHelper: 1
  m_spawnMode: 0
  imageMasks: []
  m_clearSpawnsToggleTrees: 0
  m_clearSpawnsToggleDetails: 0
  m_clearSpawnsToggleGOs: 0
  m_clearSpawnsToggleSpawnExtensions: 0
  m_clearSpawnsToggleProbes: 0
  m_clearSpawnsFor: 1
  m_clearSpawnsFrom: 0
  m_lastGUIDSaved: 5d67dcaf933cf3d4e8edae39bb3951b1
--- !u!114 &11400000
MonoBehaviour:
  m_ObjectHideFlags: 0
  m_CorrespondingSourceObject: {fileID: 0}
  m_PrefabInstance: {fileID: 0}
  m_PrefabAsset: {fileID: 0}
  m_GameObject: {fileID: 0}
  m_Enabled: 1
  m_EditorHideFlags: 0
  m_Script: {fileID: 11500000, guid: 5415a5032c6a32e4ca53206bb5d95f22, type: 3}
  m_Name: 20211028-181555 Spawning - Synty Texture Spawner(Clone)
  m_EditorClassIdentifier: 
  m_spawnArea:
    m_Center:
      x: 0
      y: 0
      z: 0
    m_Extents:
      x: 1024
      y: 1024
      z: 1024
  m_biomeControllerSettings: {fileID: 0}
  m_isWorldMapSpawner: 0
  m_spawnerSettingsList:
  - {fileID: -7265106114407362516}
