%YAML 1.1
%TAG !u! tag:unity3d.com,2011:
--- !u!1953259897 &8574412962073106934
TerrainLayer:
  m_ObjectHideFlags: 0
  m_CorrespondingSourceObject: {fileID: 0}
  m_PrefabInstance: {fileID: 0}
  m_PrefabAsset: {fileID: 0}
  m_Name: Gaia_-20211028-181457_1
  m_DiffuseTexture: {fileID: 2800000, guid: 298d7c1fa0c679d4386171408d4c1ca7, type: 3}
  m_NormalMapTexture: {fileID: 2800000, guid: 6363b7dc8a945c548a4e055d702f6c81, type: 3}
  m_MaskMapTexture: {fileID: 0}
  m_TileSize: {x: 7, y: 7}
  m_TileOffset: {x: 0, y: 0}
  m_Specular: {r: 0, g: 0, b: 0, a: 0}
  m_Metallic: 0.2
  m_Smoothness: 0.2
  m_NormalScale: 0.75
  m_DiffuseRemapMin: {x: 0, y: 0, z: 0, w: 0}
  m_DiffuseRemapMax: {x: 1, y: 1, z: 1, w: 1}
  m_MaskMapRemapMin: {x: 0, y: 0, z: 0, w: 0}
  m_MaskMapRemapMax: {x: 1, y: 1, z: 1, w: 1}
