%YAML 1.1
%TAG !u! tag:unity3d.com,2011:
--- !u!1953259897 &8574412962073106934
TerrainLayer:
  m_ObjectHideFlags: 0
  m_CorrespondingSourceObject: {fileID: 0}
  m_PrefabInstance: {fileID: 0}
  m_PrefabAsset: {fileID: 0}
  m_Name: Gaia_-20211028-180106_0
  m_DiffuseTexture: {fileID: 2800000, guid: ae548727ed0abc645ad76b70534ca74f, type: 3}
  m_NormalMapTexture: {fileID: 2800000, guid: 78e598f8d69ec7e4cb840837fea58ed0, type: 3}
  m_MaskMapTexture: {fileID: 2800000, guid: 6b731a1af70a6ae489f89086bd22b7c8, type: 3}
  m_TileSize: {x: 5, y: 5}
  m_TileOffset: {x: 0, y: 0}
  m_Specular: {r: 0, g: 0, b: 0, a: 0}
  m_Metallic: 0.2
  m_Smoothness: 0.5
  m_NormalScale: 1.2
  m_DiffuseRemapMin: {x: 0, y: 0, z: 0, w: 0}
  m_DiffuseRemapMax: {x: 1, y: 1, z: 1, w: 1}
  m_MaskMapRemapMin: {x: 0, y: 0, z: 0, w: 0}
  m_MaskMapRemapMax: {x: 1, y: 1, z: 1, w: 1}
