%YAML 1.1
%TAG !u! tag:unity3d.com,2011:
--- !u!114 &11400000
MonoBehaviour:
  m_ObjectHideFlags: 0
  m_CorrespondingSourceObject: {fileID: 0}
  m_PrefabInstance: {fileID: 0}
  m_PrefabAsset: {fileID: 0}
  m_GameObject: {fileID: 0}
  m_Enabled: 1
  m_EditorHideFlags: 0
  m_Script: {fileID: 11500000, guid: c509dbaa7b6f416409e3195321a2187e, type: 3}
  m_Name: MyLayerPalette
  m_EditorClassIdentifier: 
  PaletteLayers:
  - {fileID: 8574412962073106934, guid: b68865108245c4e19bbdd697c326a902, type: 2}
  - {fileID: 8574412962073106934, guid: 0d8369839d697466892defff58fda24d, type: 2}
  - {fileID: 8574412962073106934, guid: 1cedf376d1c124a729f5153891254940, type: 2}
  - {fileID: 8574412962073106934, guid: 15287f3558ab544d7a2de4a8a5804292, type: 2}
  - {fileID: 8574412962073106934, guid: c5236fac0fa2e4b0a8e8c231b4d6b405, type: 2}
